## Summarizes data.#
## Gives count, mean, standard deviation, standard error of the mean, and confidence interval (default 95%).#
##   data: a data frame.#
##   measurevar: the name of a column that contains the variable to be summariezed#
##   groupvars: a vector containing names of columns that contain grouping variables#
##   na.rm: a boolean that indicates whether to ignore NA's#
##   conf.interval: the percent range of the confidence interval (default is 95%)#
summarySE <- function(data=NULL, measurevar, groupvars=NULL, na.rm=FALSE,#
                      conf.interval=.95, .drop=TRUE) {#
  require(plyr)#
  # New version of length which can handle NA's: if na.rm==T, don't count them#
  length2 <- function (x, na.rm=FALSE) {#
    if (na.rm) sum(!is.na(x))#
    else       length(x)#
  }#
  # This does the summary. For each group's data frame, return a vector with#
  # N, mean, and sd#
  datac <- ddply(data, groupvars, .drop=.drop,#
                 .fun = function(xx, col) {#
                   c(N    = length2(xx[[col]], na.rm=na.rm),#
                     mean = mean   (xx[[col]], na.rm=na.rm),#
                     sd   = sd     (xx[[col]], na.rm=na.rm)#
                   )#
                 },#
                 measurevar#
  )#
  # Rename the "mean" column    #
  datac <- rename(datac, c("mean" = measurevar))#
  datac$se <- datac$sd / sqrt(datac$N)  # Calculate standard error of the mean#
  # Confidence interval multiplier for standard error#
  # Calculate t-statistic for confidence interval: #
  # e.g., if conf.interval is .95, use .975 (above/below), and use df=N-1#
  ciMult <- qt(conf.interval/2 + .5, datac$N-1)#
  datac$ci <- datac$se * ciMult#
  return(datac)#
}#
#
## Norms the data within specified groups in a data frame; it normalizes each#
## subject (identified by idvar) so that they have the same mean, within each group#
## specified by betweenvars.#
##   data: a data frame.#
##   idvar: the name of a column that identifies each subject (or matched subjects)#
##   measurevar: the name of a column that contains the variable to be summariezed#
##   betweenvars: a vector containing names of columns that are between-subjects variables#
##   na.rm: a boolean that indicates whether to ignore NA's#
normDataWithin <- function(data=NULL, idvar, measurevar, betweenvars=NULL,#
                           na.rm=FALSE, .drop=TRUE) {#
  require(plyr)#
  # Measure var on left, idvar + between vars on right of formula.#
  data.subjMean <- ddply(data, c(idvar, betweenvars), .drop=.drop,#
                         .fun = function(xx, col, na.rm) {#
                           c(subjMean = mean(xx[,col], na.rm=na.rm))#
                         },#
                         measurevar,#
                         na.rm#
  )#
  # Put the subject means with original data#
  data <- merge(data, data.subjMean)#
  # Get the normalized data in a new column#
  measureNormedVar <- paste(measurevar, "_norm", sep="")#
  data[,measureNormedVar] <- data[,measurevar] - data[,"subjMean"] +#
    mean(data[,measurevar], na.rm=na.rm)#
  # Remove this subject mean column#
  data$subjMean <- NULL#
  return(data)#
}#
#
## Summarizes data, handling within-subjects variables by removing inter-subject variability.#
## It will still work if there are no within-S variables.#
## Gives count, un-normed mean, normed mean (with same between-group mean),#
##   standard deviation, standard error of the mean, and confidence interval.#
## If there are within-subject variables, calculate adjusted values using method from Morey (2008).#
##   data: a data frame.#
##   measurevar: the name of a column that contains the variable to be summariezed#
##   betweenvars: a vector containing names of columns that are between-subjects variables#
##   withinvars: a vector containing names of columns that are within-subjects variables#
##   idvar: the name of a column that identifies each subject (or matched subjects)#
##   na.rm: a boolean that indicates whether to ignore NA's#
##   conf.interval: the percent range of the confidence interval (default is 95%)#
summarySEwithin <- function(data=NULL, measurevar, betweenvars=NULL, withinvars=NULL,#
                            idvar=NULL, na.rm=FALSE, conf.interval=.95, .drop=TRUE) {#
  # Ensure that the betweenvars and withinvars are factors#
  factorvars <- vapply(data[, c(betweenvars, withinvars), drop=FALSE],#
                       FUN=is.factor, FUN.VALUE=logical(1))#
  if (!all(factorvars)) {#
    nonfactorvars <- names(factorvars)[!factorvars]#
    message("Automatically converting the following non-factors to factors: ",#
            paste(nonfactorvars, collapse = ", "))#
    data[nonfactorvars] <- lapply(data[nonfactorvars], factor)#
  }#
  # Get the means from the un-normed data#
  datac <- summarySE(data, measurevar, groupvars=c(betweenvars, withinvars),#
                     na.rm=na.rm, conf.interval=conf.interval, .drop=.drop)#
  # Drop all the unused columns (these will be calculated with normed data)#
  datac$sd <- NULL#
  datac$se <- NULL#
  datac$ci <- NULL#
  # Norm each subject's data#
  ndata <- normDataWithin(data, idvar, measurevar, betweenvars, na.rm, .drop=.drop)#
  # This is the name of the new column#
  measurevar_n <- paste(measurevar, "_norm", sep="")#
  # Collapse the normed data - now we can treat between and within vars the same#
  ndatac <- summarySE(ndata, measurevar_n, groupvars=c(betweenvars, withinvars),#
                      na.rm=na.rm, conf.interval=conf.interval, .drop=.drop)#
  # Apply correction from Morey (2008) to the standard error and confidence interval#
  #  Get the product of the number of conditions of within-S variables#
  nWithinGroups    <- prod(vapply(ndatac[,withinvars, drop=FALSE], FUN=nlevels,#
                                  FUN.VALUE=numeric(1)))#
  correctionFactor <- sqrt( nWithinGroups / (nWithinGroups-1) )#
  # Apply the correction factor#
  ndatac$sd <- ndatac$sd * correctionFactor#
  ndatac$se <- ndatac$se * correctionFactor#
  ndatac$ci <- ndatac$ci * correctionFactor#
  # Combine the un-normed means with the normed results#
  merge(datac, ndatac)#
}#
library(plyr)#
library(ggplot2)#
library(stringr)#
data = read.table("study2.csv", sep=';', header=TRUE, fill=TRUE)#
data <- mutate(data, Task = paste("Task", Task_number, "/", Task_technique), Task_status_color = paste(Task_success, Task_status))#
data$Task_pref = factor(data$Task_pref)#
data$Config = as.factor(data$Config)#
data$pid = as.factor(data$pid)#
data$Task = as.factor(data$Task)#
data$Task_error = as.factor(data$Task_error)#
data$Task_status_color = factor(data$Task_status_color, levels = c("0 Dropped", "0 Timed out", "0 Completed", "1 Dropped", "1 Timed out", "1 Completed", "2 Completed"))#
data$Task_time_with_estimate <- ifelse((data$Task_status == "Dropped") | (data$Task_status == "Timed out"),480, data$Task_time)#
head(data)#
summary(data)#
str(data)#
nrow(data)#
#
uniqueParticipants <- subset(data, Config != 0)#
summary(uniqueParticipants)#
# PARTICIPANTS#
#virtuoso#
uniqueParticipants$virtuoso <- str_detect(uniqueParticipants$SPARQL_tools, "(?i)virtuoso")#
summary(uniqueParticipants$virtuoso)#
#experience#
mean(uniqueParticipants$SPARQL_years)#
median(uniqueParticipants$SPARQL_years)#
# TASKS#
#
# success / status#
status = ggplot(data, aes( y = Task_technique,  fill = Task_status_color))  + geom_bar()  +  facet_grid(rows = vars(Task_number)) + scale_fill_manual(name= "Task completion", values =c( "2 Completed" = "#5ca38b", "1 Completed" = "#98c4a8", "1 Timed out" = "#f2e17e", "1 Dropped" = "#fed798",  "0 Completed" ="#fdb885", "0 Dropped" = "#d74d61" , "0 Timed out" = "#f08871" ), labels = c( "2 Completed" = "Success. In time, all correct results", "1 Completed" ="Partial success. In time, partial results", "1 Timed out" = "Partial success. Timed out, likely to complete", "1 Dropped" = "Partial success. Dropped", "0 Completed" ="In time, wrong results","0 Dropped" = "Failure. Dropped, no precise strategy","0 Timed out" = "Failure. Timed out, no precise strategy")) +  xlab("Number of participants") + scale_y_discrete("Technique by task", labels = c("SPARQL" = "SPARQL","SPF" = "PO"))#
status#
pdf("status.pdf", width=7, height=3.5)#
print(status)#
dev.off()#
#
table(data$Task_success, data$Task)#
table(data$Task_status, data$Task)#
table(data$Task_status_color, data$Task)#
intime <- subset(data, Task_status == 'Completed')#
table(intime$Task_success, intime$Task)#
# avg time#
summ1 <- summarySE(data, measurevar="Task_time_with_estimate", groupvars=c("Task_number","Task_technique"))#
time = ggplot(summ1, aes(y= Task_technique, x= Task_time_with_estimate, fill= Task_technique))+ geom_bar(stat="identity", position=position_dodge()) + facet_grid(rows = vars(Task_number)) + scale_fill_manual(name= "Technique", values =c("SPF" = "#6ab5ba", "SPARQL" = "#735db1"), guide=FALSE)+ xlab("Average time in seconds") + geom_errorbar(aes(xmin= Task_time_with_estimate-ci, xmax= Task_time_with_estimate +ci), size=.3, width=.2, position=position_dodge(.9)) + scale_y_discrete("Technique by task", labels = c("SPARQL" = "SPARQL","SPF" = "PO"))#
time#
pdf("time.pdf",  width=5.5, height=3.5)#
print(time)#
dev.off()#
summ1#
#
subSPARQL1 = subset(data, Task_technique == "SPARQL" & Task_number == 1)#
subSPF1 = subset(data, Task_technique == "SPF" & Task_number == 1)#
t.test(log(subSPARQL1$Task_time_with_estimate), log(subSPF1$Task_time_with_estimate), paired=TRUE)#
median(subSPARQL1$Task_time_with_estimate)#
median(subSPF1$Task_time_with_estimate)#
#
subSPARQL2 = subset(data, Task_technique == "SPARQL" & Task_number == 2)#
subSPF2 = subset(data, Task_technique == "SPF" & Task_number == 2)#
t.test(log(subSPARQL2$Task_time_with_estimate), log(subSPF2$Task_time_with_estimate), paired=TRUE)#
median(subSPARQL2$Task_time_with_estimate)#
median(subSPF2$Task_time_with_estimate)#
#
subSPARQL3 = subset(data, Task_technique == "SPARQL" & Task_number == 3)#
subSPF3 = subset(data, Task_technique == "SPF" & Task_number == 3)#
t.test(log(subSPARQL3$Task_time_with_estimate), log(subSPF3$Task_time_with_estimate), paired=TRUE)#
median(subSPARQL3$Task_time_with_estimate)#
median(subSPF3$Task_time_with_estimate)#
median(tasks1$Task_time_with_estimate)#
# easiness#
data$Task_difficult <- factor(data$Task_difficult, levels = c("Very difficult", "Difficult", "Moderate", "Easy", "Very easy"))#
easy = ggplot(data, aes(y= Task_technique, fill= factor(Task_difficult)))+ geom_bar() + facet_grid(rows = vars(Task_number)) + scale_fill_manual(name= "Perceived difficulty", values =c( "Very difficult" = "#cf4849", "Difficult" = "#ef9959", "Moderate" = "#ffd263", "Easy" ="#98c4a8", "Very easy" = "#5ca38b" )) +    xlab("Number of participants") +  ylab("Number of participants") +  scale_y_discrete("Technique by task", labels = c("SPARQL" = "SPARQL","SPF" = "PO"))#
easy#
pdf("easy.pdf",  width=6, height=3.5)#
print(easy)#
dev.off()#
#
table(data$Task,data$Task_difficult)#
# comfort#
data$Task_comfortable <- factor(data$Task_comfortable, levels = c("Very uncomfortable", "Uncomfortable", "Neither","Comfortable", "Very comfortable"))#
confort = ggplot(data, aes(y= Task_technique, fill= Task_comfortable))+ geom_bar() + facet_grid(rows = vars(Task_number)) + scale_fill_manual(name= "Perceived comfort", values =c( "Very uncomfortable" = "#cf4849", "Uncomfortable" = "#ef9959", "Neither" = "#ffd263", "Comfortable" ="#98c4a8", "Very comfortable" = "#5ca38b" )) + xlab("Number of participants") +  scale_y_discrete("Technique by task", labels = c("SPARQL" = "SPARQL","SPF" = "PO"))#
confort#
pdf("confort.pdf",  width=6, height=3.5)#
print(confort)#
dev.off()#
table(data$Task,data$Task_comfortable)#
#
# preference#
filtered = subset(data, Task_pref != 0)#
prefer = ggplot(filtered, aes(y= Task_pref , fill= Task_pref ))+ geom_bar(position=position_dodge()) + scale_fill_manual(name= "Technique", values =c("The Semantic Path Finder" = "#6ab5ba", "SPARQL" = "#735db1"), guide=FALSE) +  xlab("Number of participants")+  ylab("Preferred technique by task") + facet_grid(rows = vars(Task_number)) + scale_y_discrete(labels= c("The Semantic Path Finder" = "PO", "SPARQL" = "SPARQL")) #
prefer#
pdf("prefer.pdf",  width=5.5, height=3.5)#
print(prefer)#
dev.off()#
table(data$Task,data$Task_pref)#
#
#errors#
table(data$Task,data$Task_error)#
#
find <- subset(data, data$Task_moretime == 15)#
find#
percentageSuccess <- summarySE(data, measurevar="Task_successpercent", groupvars=c("Task_number","Task_technique"))#
percentageSuccess#
#
#estimate more time#
# #
noplan = subset(data, (Task_status == 'Dropped' | Task_status == 'Timed out') & Task_preciseplan == 0 )#
table(noplan$Task_number, noplan$Task_moretime)#
plan1 = subset(data, (Task_status == 'Dropped' | Task_status == 'Timed out') & Task_preciseplan == 1 )#
table(plan1$Task_number, plan1$Task_moretime)#
plan2 = subset(data, (Task_status == 'Dropped' | Task_status == 'Timed out') & Task_preciseplan == 2 )#
table(plan2$Task_number, plan2$Task_moretime)#
library(coin)#
library(dplyr)#
tasks = mutate(data, Task_comfortable =recode(Task_comfortable, "Very uncomfortable" = 1,"Uncomfortable" = 2, "Neither" = 3 ,"Comfortable" = 4, "Very comfortable" = 5), Task_difficult = recode(Task_difficult, "Very difficult" = 1,"Difficult" = 2, "Moderate" = 3 ,"Easy" = 4, "Very easy" = 5), Task_status_color = recode( Task_status_color, "2 Completed" = 7, "1 Completed" = 6, "1 Timed out" = 5, "1 Dropped" = 4,  "0 Completed" =3, "0 Dropped" = 2 , "0 Timed out" = 1))#
#
tasks1 = subset(tasks, data$Task_number == 1)#
tasks2 = subset(tasks, data$Task_number == 2)#
tasks3 = subset(tasks, data$Task_number == 3)#
oneway_test(Task_comfortable ~ Task_technique, data = tasks1, distribution = "exact")#
oneway_test(Task_comfortable ~ Task_technique, data = tasks2, distribution = "exact")#
oneway_test(Task_comfortable ~ Task_technique, data = tasks3, distribution = "exact")#
#
oneway_test(Task_difficult ~ Task_technique, data = tasks1, distribution = "exact")#
oneway_test(Task_difficult ~ Task_technique, data = tasks2, distribution = "exact")#
oneway_test(Task_difficult ~ Task_technique, data = tasks3, distribution = "exact")#
#
oneway_test(Task_status_color ~ Task_technique, data = tasks1, distribution = "exact")#
oneway_test(Task_status_color ~ Task_technique, data = tasks2, distribution = "exact")#
oneway_test(Task_status_color ~ Task_technique, data = tasks3, distribution = "exact")#
#pref = subset(tasks, data$Task_pref != 0)#
#pref
## Summarizes data.#
## Gives count, mean, standard deviation, standard error of the mean, and confidence interval (default 95%).#
##   data: a data frame.#
##   measurevar: the name of a column that contains the variable to be summariezed#
##   groupvars: a vector containing names of columns that contain grouping variables#
##   na.rm: a boolean that indicates whether to ignore NA's#
##   conf.interval: the percent range of the confidence interval (default is 95%)#
summarySE <- function(data=NULL, measurevar, groupvars=NULL, na.rm=FALSE,#
                      conf.interval=.95, .drop=TRUE) {#
  require(plyr)#
  # New version of length which can handle NA's: if na.rm==T, don't count them#
  length2 <- function (x, na.rm=FALSE) {#
    if (na.rm) sum(!is.na(x))#
    else       length(x)#
  }#
  # This does the summary. For each group's data frame, return a vector with#
  # N, mean, and sd#
  datac <- ddply(data, groupvars, .drop=.drop,#
                 .fun = function(xx, col) {#
                   c(N    = length2(xx[[col]], na.rm=na.rm),#
                     mean = mean   (xx[[col]], na.rm=na.rm),#
                     sd   = sd     (xx[[col]], na.rm=na.rm)#
                   )#
                 },#
                 measurevar#
  )#
  # Rename the "mean" column    #
  datac <- rename(datac, c("mean" = measurevar))#
  datac$se <- datac$sd / sqrt(datac$N)  # Calculate standard error of the mean#
  # Confidence interval multiplier for standard error#
  # Calculate t-statistic for confidence interval: #
  # e.g., if conf.interval is .95, use .975 (above/below), and use df=N-1#
  ciMult <- qt(conf.interval/2 + .5, datac$N-1)#
  datac$ci <- datac$se * ciMult#
  return(datac)#
}#
#
## Norms the data within specified groups in a data frame; it normalizes each#
## subject (identified by idvar) so that they have the same mean, within each group#
## specified by betweenvars.#
##   data: a data frame.#
##   idvar: the name of a column that identifies each subject (or matched subjects)#
##   measurevar: the name of a column that contains the variable to be summariezed#
##   betweenvars: a vector containing names of columns that are between-subjects variables#
##   na.rm: a boolean that indicates whether to ignore NA's#
normDataWithin <- function(data=NULL, idvar, measurevar, betweenvars=NULL,#
                           na.rm=FALSE, .drop=TRUE) {#
  require(plyr)#
  # Measure var on left, idvar + between vars on right of formula.#
  data.subjMean <- ddply(data, c(idvar, betweenvars), .drop=.drop,#
                         .fun = function(xx, col, na.rm) {#
                           c(subjMean = mean(xx[,col], na.rm=na.rm))#
                         },#
                         measurevar,#
                         na.rm#
  )#
  # Put the subject means with original data#
  data <- merge(data, data.subjMean)#
  # Get the normalized data in a new column#
  measureNormedVar <- paste(measurevar, "_norm", sep="")#
  data[,measureNormedVar] <- data[,measurevar] - data[,"subjMean"] +#
    mean(data[,measurevar], na.rm=na.rm)#
  # Remove this subject mean column#
  data$subjMean <- NULL#
  return(data)#
}#
#
## Summarizes data, handling within-subjects variables by removing inter-subject variability.#
## It will still work if there are no within-S variables.#
## Gives count, un-normed mean, normed mean (with same between-group mean),#
##   standard deviation, standard error of the mean, and confidence interval.#
## If there are within-subject variables, calculate adjusted values using method from Morey (2008).#
##   data: a data frame.#
##   measurevar: the name of a column that contains the variable to be summariezed#
##   betweenvars: a vector containing names of columns that are between-subjects variables#
##   withinvars: a vector containing names of columns that are within-subjects variables#
##   idvar: the name of a column that identifies each subject (or matched subjects)#
##   na.rm: a boolean that indicates whether to ignore NA's#
##   conf.interval: the percent range of the confidence interval (default is 95%)#
summarySEwithin <- function(data=NULL, measurevar, betweenvars=NULL, withinvars=NULL,#
                            idvar=NULL, na.rm=FALSE, conf.interval=.95, .drop=TRUE) {#
  # Ensure that the betweenvars and withinvars are factors#
  factorvars <- vapply(data[, c(betweenvars, withinvars), drop=FALSE],#
                       FUN=is.factor, FUN.VALUE=logical(1))#
  if (!all(factorvars)) {#
    nonfactorvars <- names(factorvars)[!factorvars]#
    message("Automatically converting the following non-factors to factors: ",#
            paste(nonfactorvars, collapse = ", "))#
    data[nonfactorvars] <- lapply(data[nonfactorvars], factor)#
  }#
  # Get the means from the un-normed data#
  datac <- summarySE(data, measurevar, groupvars=c(betweenvars, withinvars),#
                     na.rm=na.rm, conf.interval=conf.interval, .drop=.drop)#
  # Drop all the unused columns (these will be calculated with normed data)#
  datac$sd <- NULL#
  datac$se <- NULL#
  datac$ci <- NULL#
  # Norm each subject's data#
  ndata <- normDataWithin(data, idvar, measurevar, betweenvars, na.rm, .drop=.drop)#
  # This is the name of the new column#
  measurevar_n <- paste(measurevar, "_norm", sep="")#
  # Collapse the normed data - now we can treat between and within vars the same#
  ndatac <- summarySE(ndata, measurevar_n, groupvars=c(betweenvars, withinvars),#
                      na.rm=na.rm, conf.interval=conf.interval, .drop=.drop)#
  # Apply correction from Morey (2008) to the standard error and confidence interval#
  #  Get the product of the number of conditions of within-S variables#
  nWithinGroups    <- prod(vapply(ndatac[,withinvars, drop=FALSE], FUN=nlevels,#
                                  FUN.VALUE=numeric(1)))#
  correctionFactor <- sqrt( nWithinGroups / (nWithinGroups-1) )#
  # Apply the correction factor#
  ndatac$sd <- ndatac$sd * correctionFactor#
  ndatac$se <- ndatac$se * correctionFactor#
  ndatac$ci <- ndatac$ci * correctionFactor#
  # Combine the un-normed means with the normed results#
  merge(datac, ndatac)#
}#
library(plyr)#
library(ggplot2)#
library(stringr)#
data = read.table("study2.csv", sep=';', header=TRUE, fill=TRUE)#
data <- mutate(data, Task = paste("Task", Task_number, "/", Task_technique), Task_status_color = paste(Task_success, Task_status))#
data$Task_pref = factor(data$Task_pref)#
data$Config = as.factor(data$Config)#
data$pid = as.factor(data$pid)#
data$Task = as.factor(data$Task)#
data$Task_error = as.factor(data$Task_error)#
data$Task_status_color = factor(data$Task_status_color, levels = c("0 Dropped", "0 Timed out", "0 Completed", "1 Dropped", "1 Timed out", "1 Completed", "2 Completed"))#
data$Task_time_with_estimate <- ifelse((data$Task_status == "Dropped") | (data$Task_status == "Timed out"),480, data$Task_time)#
head(data)#
summary(data)#
str(data)#
nrow(data)#
#
uniqueParticipants <- subset(data, Config != 0)#
summary(uniqueParticipants)#
# PARTICIPANTS#
#virtuoso#
uniqueParticipants$virtuoso <- str_detect(uniqueParticipants$SPARQL_tools, "(?i)virtuoso")#
summary(uniqueParticipants$virtuoso)#
#experience#
mean(uniqueParticipants$SPARQL_years)#
median(uniqueParticipants$SPARQL_years)#
# TASKS#
#
# success / status#
status = ggplot(data, aes( x = Task_technique,  fill = Task_status_color))  + geom_bar()  +  facet_grid(cols = vars(Task_number)) + scale_fill_manual(name= "Task completion", values =c( "2 Completed" = "#5ca38b", "1 Completed" = "#98c4a8", "1 Timed out" = "#f2e17e", "1 Dropped" = "#fed798",  "0 Completed" ="#fdb885", "0 Dropped" = "#d74d61" , "0 Timed out" = "#f08871" ), labels = c( "2 Completed" = "Success. In time, all correct results", "1 Completed" ="Partial success. In time, partial results", "1 Timed out" = "Partial success. Timed out, likely to complete", "1 Dropped" = "Partial success. Dropped", "0 Completed" ="In time, wrong results","0 Dropped" = "Failure. Dropped, no precise strategy","0 Timed out" = "Failure. Timed out, no precise strategy")) +  ylab("Number of participants") + scale_x_discrete("Technique by task", labels = c("SPARQL" = "SPARQL","SPF" = "PO"))#
status#
pdf("status.pdf", width=7, height=3.5)#
print(status)#
dev.off()#
#
table(data$Task_success, data$Task)#
table(data$Task_status, data$Task)#
table(data$Task_status_color, data$Task)#
intime <- subset(data, Task_status == 'Completed')#
table(intime$Task_success, intime$Task)#
# avg time#
summ1 <- summarySE(data, measurevar="Task_time_with_estimate", groupvars=c("Task_number","Task_technique"))#
time = ggplot(summ1, aes(x= Task_technique, y= Task_time_with_estimate, fill= Task_technique))+ geom_bar(stat="identity", position=position_dodge()) + facet_grid(rows = vars(Task_number)) + scale_fill_manual(name= "Technique", values =c("SPF" = "#6ab5ba", "SPARQL" = "#735db1"), guide=FALSE)+ ylab("Average time in seconds") + geom_errorbar(aes(xmin= Task_time_with_estimate-ci, xmax= Task_time_with_estimate +ci), size=.3, width=.2, position=position_dodge(.9)) + scale_x_discrete("Technique by task", labels = c("SPARQL" = "SPARQL","SPF" = "PO"))#
time#
pdf("time.pdf",  width=5.5, height=3.5)#
print(time)#
dev.off()#
summ1#
#
subSPARQL1 = subset(data, Task_technique == "SPARQL" & Task_number == 1)#
subSPF1 = subset(data, Task_technique == "SPF" & Task_number == 1)#
t.test(log(subSPARQL1$Task_time_with_estimate), log(subSPF1$Task_time_with_estimate), paired=TRUE)#
median(subSPARQL1$Task_time_with_estimate)#
median(subSPF1$Task_time_with_estimate)#
#
subSPARQL2 = subset(data, Task_technique == "SPARQL" & Task_number == 2)#
subSPF2 = subset(data, Task_technique == "SPF" & Task_number == 2)#
t.test(log(subSPARQL2$Task_time_with_estimate), log(subSPF2$Task_time_with_estimate), paired=TRUE)#
median(subSPARQL2$Task_time_with_estimate)#
median(subSPF2$Task_time_with_estimate)#
#
subSPARQL3 = subset(data, Task_technique == "SPARQL" & Task_number == 3)#
subSPF3 = subset(data, Task_technique == "SPF" & Task_number == 3)#
t.test(log(subSPARQL3$Task_time_with_estimate), log(subSPF3$Task_time_with_estimate), paired=TRUE)#
median(subSPARQL3$Task_time_with_estimate)#
median(subSPF3$Task_time_with_estimate)#
median(tasks1$Task_time_with_estimate)#
# easiness#
data$Task_difficult <- factor(data$Task_difficult, levels = c("Very difficult", "Difficult", "Moderate", "Easy", "Very easy"))#
easy = ggplot(data, aes(x= Task_technique, fill= factor(Task_difficult)))+ geom_bar() + facet_grid(cols = vars(Task_number)) + scale_fill_manual(name= "Perceived difficulty", values =c( "Very difficult" = "#cf4849", "Difficult" = "#ef9959", "Moderate" = "#ffd263", "Easy" ="#98c4a8", "Very easy" = "#5ca38b" )) +    ylab("Number of participants") +  xlab("Number of participants") +  scale_x_discrete("Technique by task", labels = c("SPARQL" = "SPARQL","SPF" = "PO"))#
easy#
pdf("easy.pdf",  width=6, height=3.5)#
print(easy)#
dev.off()#
#
table(data$Task,data$Task_difficult)#
# comfort#
data$Task_comfortable <- factor(data$Task_comfortable, levels = c("Very uncomfortable", "Uncomfortable", "Neither","Comfortable", "Very comfortable"))#
confort = ggplot(data, aes(x= Task_technique, fill= Task_comfortable))+ geom_bar() + facet_grid(cols = vars(Task_number)) + scale_fill_manual(name= "Perceived comfort", values =c( "Very uncomfortable" = "#cf4849", "Uncomfortable" = "#ef9959", "Neither" = "#ffd263", "Comfortable" ="#98c4a8", "Very comfortable" = "#5ca38b" )) + ylab("Number of participants") +  scale_x_discrete("Technique by task", labels = c("SPARQL" = "SPARQL","SPF" = "PO"))#
confort#
pdf("confort.pdf",  width=6, height=3.5)#
print(confort)#
dev.off()#
table(data$Task,data$Task_comfortable)#
#
# preference#
filtered = subset(data, Task_pref != 0)#
prefer = ggplot(filtered, aes(x= Task_pref , fill= Task_pref ))+ geom_bar(position=position_dodge()) + scale_fill_manual(name= "Technique", values =c("The Semantic Path Finder" = "#6ab5ba", "SPARQL" = "#735db1"), guide=FALSE) +  xlab("Number of participants")+  xlab("Preferred technique by task") + facet_grid(cols = vars(Task_number)) + scale_x_discrete(labels= c("The Semantic Path Finder" = "PO", "SPARQL" = "SPARQL")) #
prefer#
pdf("prefer.pdf",  width=5.5, height=3.5)#
print(prefer)#
dev.off()#
table(data$Task,data$Task_pref)#
#
#errors#
table(data$Task,data$Task_error)#
#
find <- subset(data, data$Task_moretime == 15)#
find#
percentageSuccess <- summarySE(data, measurevar="Task_successpercent", groupvars=c("Task_number","Task_technique"))#
percentageSuccess#
#
#estimate more time#
# #
noplan = subset(data, (Task_status == 'Dropped' | Task_status == 'Timed out') & Task_preciseplan == 0 )#
table(noplan$Task_number, noplan$Task_moretime)#
plan1 = subset(data, (Task_status == 'Dropped' | Task_status == 'Timed out') & Task_preciseplan == 1 )#
table(plan1$Task_number, plan1$Task_moretime)#
plan2 = subset(data, (Task_status == 'Dropped' | Task_status == 'Timed out') & Task_preciseplan == 2 )#
table(plan2$Task_number, plan2$Task_moretime)#
library(coin)#
library(dplyr)#
tasks = mutate(data, Task_comfortable =recode(Task_comfortable, "Very uncomfortable" = 1,"Uncomfortable" = 2, "Neither" = 3 ,"Comfortable" = 4, "Very comfortable" = 5), Task_difficult = recode(Task_difficult, "Very difficult" = 1,"Difficult" = 2, "Moderate" = 3 ,"Easy" = 4, "Very easy" = 5), Task_status_color = recode( Task_status_color, "2 Completed" = 7, "1 Completed" = 6, "1 Timed out" = 5, "1 Dropped" = 4,  "0 Completed" =3, "0 Dropped" = 2 , "0 Timed out" = 1))#
#
tasks1 = subset(tasks, data$Task_number == 1)#
tasks2 = subset(tasks, data$Task_number == 2)#
tasks3 = subset(tasks, data$Task_number == 3)#
oneway_test(Task_comfortable ~ Task_technique, data = tasks1, distribution = "exact")#
oneway_test(Task_comfortable ~ Task_technique, data = tasks2, distribution = "exact")#
oneway_test(Task_comfortable ~ Task_technique, data = tasks3, distribution = "exact")#
#
oneway_test(Task_difficult ~ Task_technique, data = tasks1, distribution = "exact")#
oneway_test(Task_difficult ~ Task_technique, data = tasks2, distribution = "exact")#
oneway_test(Task_difficult ~ Task_technique, data = tasks3, distribution = "exact")#
#
oneway_test(Task_status_color ~ Task_technique, data = tasks1, distribution = "exact")#
oneway_test(Task_status_color ~ Task_technique, data = tasks2, distribution = "exact")#
oneway_test(Task_status_color ~ Task_technique, data = tasks3, distribution = "exact")#
#pref = subset(tasks, data$Task_pref != 0)#
#pref
summ1 <- summarySE(data, measurevar="Task_time_with_estimate", groupvars=c("Task_number","Task_technique"))#
time = ggplot(summ1, aes(x= Task_technique, y= Task_time_with_estimate, fill= Task_technique))+ geom_bar(stat="identity", position=position_dodge()) + facet_grid(cols = vars(Task_number)) + scale_fill_manual(name= "Technique", values =c("SPF" = "#6ab5ba", "SPARQL" = "#735db1"), guide=FALSE)+ ylab("Average time in seconds") + geom_errorbar(aes(ymin= Task_time_with_estimate-ci, ymax= Task_time_with_estimate +ci), size=.3, width=.2, position=position_dodge(.9)) + scale_x_discrete("Technique by task", labels = c("SPARQL" = "SPARQL","SPF" = "PO"))#
time#
pdf("time.pdf",  width=5.5, height=3.5)#
print(time)#
dev.off()#
summ1
## Summarizes data.#
## Gives count, mean, standard deviation, standard error of the mean, and confidence interval (default 95%).#
##   data: a data frame.#
##   measurevar: the name of a column that contains the variable to be summariezed#
##   groupvars: a vector containing names of columns that contain grouping variables#
##   na.rm: a boolean that indicates whether to ignore NA's#
##   conf.interval: the percent range of the confidence interval (default is 95%)#
summarySE <- function(data=NULL, measurevar, groupvars=NULL, na.rm=FALSE,#
                      conf.interval=.95, .drop=TRUE) {#
  require(plyr)#
  # New version of length which can handle NA's: if na.rm==T, don't count them#
  length2 <- function (x, na.rm=FALSE) {#
    if (na.rm) sum(!is.na(x))#
    else       length(x)#
  }#
  # This does the summary. For each group's data frame, return a vector with#
  # N, mean, and sd#
  datac <- ddply(data, groupvars, .drop=.drop,#
                 .fun = function(xx, col) {#
                   c(N    = length2(xx[[col]], na.rm=na.rm),#
                     mean = mean   (xx[[col]], na.rm=na.rm),#
                     sd   = sd     (xx[[col]], na.rm=na.rm)#
                   )#
                 },#
                 measurevar#
  )#
  # Rename the "mean" column    #
  datac <- rename(datac, c("mean" = measurevar))#
  datac$se <- datac$sd / sqrt(datac$N)  # Calculate standard error of the mean#
  # Confidence interval multiplier for standard error#
  # Calculate t-statistic for confidence interval: #
  # e.g., if conf.interval is .95, use .975 (above/below), and use df=N-1#
  ciMult <- qt(conf.interval/2 + .5, datac$N-1)#
  datac$ci <- datac$se * ciMult#
  return(datac)#
}#
#
## Norms the data within specified groups in a data frame; it normalizes each#
## subject (identified by idvar) so that they have the same mean, within each group#
## specified by betweenvars.#
##   data: a data frame.#
##   idvar: the name of a column that identifies each subject (or matched subjects)#
##   measurevar: the name of a column that contains the variable to be summariezed#
##   betweenvars: a vector containing names of columns that are between-subjects variables#
##   na.rm: a boolean that indicates whether to ignore NA's#
normDataWithin <- function(data=NULL, idvar, measurevar, betweenvars=NULL,#
                           na.rm=FALSE, .drop=TRUE) {#
  require(plyr)#
  # Measure var on left, idvar + between vars on right of formula.#
  data.subjMean <- ddply(data, c(idvar, betweenvars), .drop=.drop,#
                         .fun = function(xx, col, na.rm) {#
                           c(subjMean = mean(xx[,col], na.rm=na.rm))#
                         },#
                         measurevar,#
                         na.rm#
  )#
  # Put the subject means with original data#
  data <- merge(data, data.subjMean)#
  # Get the normalized data in a new column#
  measureNormedVar <- paste(measurevar, "_norm", sep="")#
  data[,measureNormedVar] <- data[,measurevar] - data[,"subjMean"] +#
    mean(data[,measurevar], na.rm=na.rm)#
  # Remove this subject mean column#
  data$subjMean <- NULL#
  return(data)#
}#
#
## Summarizes data, handling within-subjects variables by removing inter-subject variability.#
## It will still work if there are no within-S variables.#
## Gives count, un-normed mean, normed mean (with same between-group mean),#
##   standard deviation, standard error of the mean, and confidence interval.#
## If there are within-subject variables, calculate adjusted values using method from Morey (2008).#
##   data: a data frame.#
##   measurevar: the name of a column that contains the variable to be summariezed#
##   betweenvars: a vector containing names of columns that are between-subjects variables#
##   withinvars: a vector containing names of columns that are within-subjects variables#
##   idvar: the name of a column that identifies each subject (or matched subjects)#
##   na.rm: a boolean that indicates whether to ignore NA's#
##   conf.interval: the percent range of the confidence interval (default is 95%)#
summarySEwithin <- function(data=NULL, measurevar, betweenvars=NULL, withinvars=NULL,#
                            idvar=NULL, na.rm=FALSE, conf.interval=.95, .drop=TRUE) {#
  # Ensure that the betweenvars and withinvars are factors#
  factorvars <- vapply(data[, c(betweenvars, withinvars), drop=FALSE],#
                       FUN=is.factor, FUN.VALUE=logical(1))#
  if (!all(factorvars)) {#
    nonfactorvars <- names(factorvars)[!factorvars]#
    message("Automatically converting the following non-factors to factors: ",#
            paste(nonfactorvars, collapse = ", "))#
    data[nonfactorvars] <- lapply(data[nonfactorvars], factor)#
  }#
  # Get the means from the un-normed data#
  datac <- summarySE(data, measurevar, groupvars=c(betweenvars, withinvars),#
                     na.rm=na.rm, conf.interval=conf.interval, .drop=.drop)#
  # Drop all the unused columns (these will be calculated with normed data)#
  datac$sd <- NULL#
  datac$se <- NULL#
  datac$ci <- NULL#
  # Norm each subject's data#
  ndata <- normDataWithin(data, idvar, measurevar, betweenvars, na.rm, .drop=.drop)#
  # This is the name of the new column#
  measurevar_n <- paste(measurevar, "_norm", sep="")#
  # Collapse the normed data - now we can treat between and within vars the same#
  ndatac <- summarySE(ndata, measurevar_n, groupvars=c(betweenvars, withinvars),#
                      na.rm=na.rm, conf.interval=conf.interval, .drop=.drop)#
  # Apply correction from Morey (2008) to the standard error and confidence interval#
  #  Get the product of the number of conditions of within-S variables#
  nWithinGroups    <- prod(vapply(ndatac[,withinvars, drop=FALSE], FUN=nlevels,#
                                  FUN.VALUE=numeric(1)))#
  correctionFactor <- sqrt( nWithinGroups / (nWithinGroups-1) )#
  # Apply the correction factor#
  ndatac$sd <- ndatac$sd * correctionFactor#
  ndatac$se <- ndatac$se * correctionFactor#
  ndatac$ci <- ndatac$ci * correctionFactor#
  # Combine the un-normed means with the normed results#
  merge(datac, ndatac)#
}#
library(plyr)#
library(ggplot2)#
library(stringr)#
data = read.table("study2.csv", sep=';', header=TRUE, fill=TRUE)#
data <- mutate(data, Task = paste("Task", Task_number, "/", Task_technique), Task_status_color = paste(Task_success, Task_status))#
data$Task_pref = factor(data$Task_pref)#
data$Config = as.factor(data$Config)#
data$pid = as.factor(data$pid)#
data$Task = as.factor(data$Task)#
data$Task_error = as.factor(data$Task_error)#
data$Task_status_color = factor(data$Task_status_color, levels = c("0 Dropped", "0 Timed out", "0 Completed", "1 Dropped", "1 Timed out", "1 Completed", "2 Completed"))#
data$Task_time_with_estimate <- ifelse((data$Task_status == "Dropped") | (data$Task_status == "Timed out"),480, data$Task_time)#
head(data)#
summary(data)#
str(data)#
nrow(data)#
#
uniqueParticipants <- subset(data, Config != 0)#
summary(uniqueParticipants)#
# PARTICIPANTS#
#virtuoso#
uniqueParticipants$virtuoso <- str_detect(uniqueParticipants$SPARQL_tools, "(?i)virtuoso")#
summary(uniqueParticipants$virtuoso)#
#experience#
mean(uniqueParticipants$SPARQL_years)#
median(uniqueParticipants$SPARQL_years)#
# TASKS#
#
# success / status#
status = ggplot(data, aes( x = Task_technique,  fill = Task_status_color))  + geom_bar()  +  facet_grid(cols = vars(Task_number)) + scale_fill_manual(name= "Task completion", values =c( "2 Completed" = "#5ca38b", "1 Completed" = "#98c4a8", "1 Timed out" = "#f2e17e", "1 Dropped" = "#fed798",  "0 Completed" ="#fdb885", "0 Dropped" = "#d74d61" , "0 Timed out" = "#f08871" ), labels = c( "2 Completed" = "Success. In time, all correct results", "1 Completed" ="Partial success. In time, partial results", "1 Timed out" = "Partial success. Timed out, likely to complete", "1 Dropped" = "Partial success. Dropped", "0 Completed" ="In time, wrong results","0 Dropped" = "Failure. Dropped, no precise strategy","0 Timed out" = "Failure. Timed out, no precise strategy")) +  ylab("Number of participants") + scale_x_discrete("Technique by task", labels = c("SPARQL" = "SPARQL","SPF" = "PO"))#
status#
pdf("status.pdf", width=7.2, height=2.7)#
print(status)#
dev.off()#
#
table(data$Task_success, data$Task)#
table(data$Task_status, data$Task)#
table(data$Task_status_color, data$Task)#
intime <- subset(data, Task_status == 'Completed')#
table(intime$Task_success, intime$Task)#
# avg time#
summ1 <- summarySE(data, measurevar="Task_time_with_estimate", groupvars=c("Task_number","Task_technique"))#
time = ggplot(summ1, aes(x= Task_technique, y= Task_time_with_estimate, fill= Task_technique))+ geom_bar(stat="identity", position=position_dodge()) + facet_grid(cols = vars(Task_number)) + scale_fill_manual(name= "Technique", values =c("SPF" = "#6ab5ba", "SPARQL" = "#735db1"), guide=FALSE)+ ylab("Average time in seconds") + geom_errorbar(aes(ymin= Task_time_with_estimate-ci, ymax= Task_time_with_estimate +ci), size=.3, width=.2, position=position_dodge(.9)) + scale_x_discrete("Technique by task", labels = c("SPARQL" = "SPARQL","SPF" = "PO"))#
time#
pdf("time.pdf",  width=3.5, height=3.5)#
print(time)#
dev.off()#
summ1#
#
subSPARQL1 = subset(data, Task_technique == "SPARQL" & Task_number == 1)#
subSPF1 = subset(data, Task_technique == "SPF" & Task_number == 1)#
t.test(log(subSPARQL1$Task_time_with_estimate), log(subSPF1$Task_time_with_estimate), paired=TRUE)#
median(subSPARQL1$Task_time_with_estimate)#
median(subSPF1$Task_time_with_estimate)#
#
subSPARQL2 = subset(data, Task_technique == "SPARQL" & Task_number == 2)#
subSPF2 = subset(data, Task_technique == "SPF" & Task_number == 2)#
t.test(log(subSPARQL2$Task_time_with_estimate), log(subSPF2$Task_time_with_estimate), paired=TRUE)#
median(subSPARQL2$Task_time_with_estimate)#
median(subSPF2$Task_time_with_estimate)#
#
subSPARQL3 = subset(data, Task_technique == "SPARQL" & Task_number == 3)#
subSPF3 = subset(data, Task_technique == "SPF" & Task_number == 3)#
t.test(log(subSPARQL3$Task_time_with_estimate), log(subSPF3$Task_time_with_estimate), paired=TRUE)#
median(subSPARQL3$Task_time_with_estimate)#
median(subSPF3$Task_time_with_estimate)#
median(tasks1$Task_time_with_estimate)#
# easiness#
data$Task_difficult <- factor(data$Task_difficult, levels = c("Very difficult", "Difficult", "Moderate", "Easy", "Very easy"))#
easy = ggplot(data, aes(x= Task_technique, fill= factor(Task_difficult)))+ geom_bar() + facet_grid(cols = vars(Task_number)) + scale_fill_manual(name= "Perceived difficulty", values =c( "Very difficult" = "#cf4849", "Difficult" = "#ef9959", "Moderate" = "#ffd263", "Easy" ="#98c4a8", "Very easy" = "#5ca38b" )) +    ylab("Number of participants") +  xlab("Number of participants") +  scale_x_discrete("Technique by task", labels = c("SPARQL" = "SPARQL","SPF" = "PO"))#
easy#
pdf("easy.pdf",  width=6, height=2.5)#
print(easy)#
dev.off()#
#
table(data$Task,data$Task_difficult)#
# comfort#
data$Task_comfortable <- factor(data$Task_comfortable, levels = c("Very uncomfortable", "Uncomfortable", "Neither","Comfortable", "Very comfortable"))#
confort = ggplot(data, aes(x= Task_technique, fill= Task_comfortable))+ geom_bar() + facet_grid(cols = vars(Task_number)) + scale_fill_manual(name= "Perceived comfort", values =c( "Very uncomfortable" = "#cf4849", "Uncomfortable" = "#ef9959", "Neither" = "#ffd263", "Comfortable" ="#98c4a8", "Very comfortable" = "#5ca38b" )) + ylab("Number of participants") +  scale_x_discrete("Technique by task", labels = c("SPARQL" = "SPARQL","SPF" = "PO"))#
confort#
pdf("confort.pdf",  width=6, height=2.5)#
print(confort)#
dev.off()#
table(data$Task,data$Task_comfortable)#
#
# preference#
filtered = subset(data, Task_pref != 0)#
prefer = ggplot(filtered, aes(x= Task_pref , fill= Task_pref ))+ geom_bar(position=position_dodge()) + scale_fill_manual(name= "Technique", values =c("The Semantic Path Finder" = "#6ab5ba", "SPARQL" = "#735db1"), guide=FALSE) +  ylab("Number of participants")+  xlab("Preferred technique by task") + facet_grid(cols = vars(Task_number)) + scale_x_discrete(labels= c("The Semantic Path Finder" = "PO", "SPARQL" = "SPARQL")) #
prefer#
pdf("prefer.pdf",  width=3.5, height=3.5)#
print(prefer)#
dev.off()#
table(data$Task,data$Task_pref)#
#
#errors#
table(data$Task,data$Task_error)#
#
find <- subset(data, data$Task_moretime == 15)#
find#
percentageSuccess <- summarySE(data, measurevar="Task_successpercent", groupvars=c("Task_number","Task_technique"))#
percentageSuccess#
#
#estimate more time#
# #
noplan = subset(data, (Task_status == 'Dropped' | Task_status == 'Timed out') & Task_preciseplan == 0 )#
table(noplan$Task_number, noplan$Task_moretime)#
plan1 = subset(data, (Task_status == 'Dropped' | Task_status == 'Timed out') & Task_preciseplan == 1 )#
table(plan1$Task_number, plan1$Task_moretime)#
plan2 = subset(data, (Task_status == 'Dropped' | Task_status == 'Timed out') & Task_preciseplan == 2 )#
table(plan2$Task_number, plan2$Task_moretime)#
library(coin)#
library(dplyr)#
tasks = mutate(data, Task_comfortable =recode(Task_comfortable, "Very uncomfortable" = 1,"Uncomfortable" = 2, "Neither" = 3 ,"Comfortable" = 4, "Very comfortable" = 5), Task_difficult = recode(Task_difficult, "Very difficult" = 1,"Difficult" = 2, "Moderate" = 3 ,"Easy" = 4, "Very easy" = 5), Task_status_color = recode( Task_status_color, "2 Completed" = 7, "1 Completed" = 6, "1 Timed out" = 5, "1 Dropped" = 4,  "0 Completed" =3, "0 Dropped" = 2 , "0 Timed out" = 1))#
#
tasks1 = subset(tasks, data$Task_number == 1)#
tasks2 = subset(tasks, data$Task_number == 2)#
tasks3 = subset(tasks, data$Task_number == 3)#
oneway_test(Task_comfortable ~ Task_technique, data = tasks1, distribution = "exact")#
oneway_test(Task_comfortable ~ Task_technique, data = tasks2, distribution = "exact")#
oneway_test(Task_comfortable ~ Task_technique, data = tasks3, distribution = "exact")#
#
oneway_test(Task_difficult ~ Task_technique, data = tasks1, distribution = "exact")#
oneway_test(Task_difficult ~ Task_technique, data = tasks2, distribution = "exact")#
oneway_test(Task_difficult ~ Task_technique, data = tasks3, distribution = "exact")#
#
oneway_test(Task_status_color ~ Task_technique, data = tasks1, distribution = "exact")#
oneway_test(Task_status_color ~ Task_technique, data = tasks2, distribution = "exact")#
oneway_test(Task_status_color ~ Task_technique, data = tasks3, distribution = "exact")#
#pref = subset(tasks, data$Task_pref != 0)#
#pref
library(plyr)#
library(ggplot2)#
#library(stringr)#
#
######################################################################################
tasks = read.table("study1.csv", sep=';', header=TRUE, fill=TRUE)#
head(tasks)#
summary(tasks)#
str(tasks)#
nrow(tasks)#
tasks$Often <- factor(tasks$Often, levels = c("4", "3", "2","1", "0"))#
tasks$Often#
Often = ggplot(tasks, aes(y= Task, fill= Often))+ geom_bar() + xlab("Number of participants") +  ylab("Task")  + scale_fill_manual(name= "Frequency", values =c("4" = "#147086", "3" = "#1a8699", "2" = "#6ab5ba", "1" = "#8ecbcc", "0" = "#a1d5d4"), labels =c("4" = "Very often", "3" = "Often", "2" = "Not so often", "1" = "Rarely", "0" = "Never"))#
Often#
pdf("Often.pdf",  width=3.5, height=3.5)#
print(Often)#
dev.off()#
#
tasks$Interested <- factor(tasks$Interested, levels = c("2","1", "0"))#
#
Interested = ggplot(tasks, aes(y= Task, fill= Interested))+ geom_bar() + xlab("Number of participants") +  ylab("Task") +  scale_fill_manual(name= "Interest", values =c("2" = "#144a86", "1" = "#347ac7", "0" = "#a2caf6"), labels =c("2" = "Strong", "1" = "Moderate", "0" = "None"))#
#
Interested#
pdf("Interested.pdf",  width=3.5, height=3.5)#
print(Interested)#
dev.off()#
table(tasks$Often, tasks$Interested)#
tasks$Method#
summary(tasks$Method)
library(plyr)#
library(ggplot2)#
#library(stringr)#
#
######################################################################################
tasks = read.table("study1.csv", sep=';', header=TRUE, fill=TRUE)#
head(tasks)#
summary(tasks)#
str(tasks)#
nrow(tasks)#
tasks$Often <- factor(tasks$Often, levels = c("4", "3", "2","1", "0"))#
tasks$Often#
Often = ggplot(tasks, aes(y= Task, fill= Often))+ geom_bar() + xlab("Number of participants") +  ylab("Task")  + scale_fill_manual(name= "Frequency", values =c("4" = "#147086", "3" = "#1a8699", "2" = "#6ab5ba", "1" = "#8ecbcc", "0" = "#a1d5d4"), labels =c("4" = "Very often", "3" = "Often", "2" = "Not so often", "1" = "Rarely", "0" = "Never"))#
Often#
pdf("Often.pdf",  width=3.5, height=3.5)#
print(Often)#
dev.off()#
#
tasks$Interested <- factor(tasks$Interested, levels = c("2","1", "0"))#
#
Interested = ggplot(tasks, aes(y= Task, fill= Interested))+ geom_bar() + xlab("Number of participants") +  ylab("Task") +  scale_fill_manual(name= "Interest", values =c("2" = "#144a86", "1" = "#347ac7", "0" = "#a2caf6"), labels =c("2" = "Strong", "1" = "Moderate", "0" = "None"))#
#
Interested#
pdf("Interested.pdf",  width=3.5, height=3.5)#
print(Interested)#
dev.off()#
table(tasks$Often, tasks$Interested)#
tasks$Method#
summary(tasks$Method)
library(plyr)#
library(ggplot2)#
#library(stringr)#
#
######################################################################################
tasks = read.table("study1.csv", sep=';', header=TRUE, fill=TRUE)#
head(tasks)#
summary(tasks)#
str(tasks)#
nrow(tasks)#
tasks$Often <- factor(tasks$Often, levels = c("4", "3", "2","1", "0"))#
tasks$Often#
Often = ggplot(tasks, aes(x= Task, fill= Often))+ geom_bar() + ylab("Number of participants") +  xlab("Task")  + scale_fill_manual(name= "Frequency", values =c("4" = "#147086", "3" = "#1a8699", "2" = "#6ab5ba", "1" = "#8ecbcc", "0" = "#a1d5d4"), labels =c("4" = "Very often", "3" = "Often", "2" = "Not so often", "1" = "Rarely", "0" = "Never"))#
Often#
pdf("Often.pdf",  width=3.5, height=3.5)#
print(Often)#
dev.off()#
#
tasks$Interested <- factor(tasks$Interested, levels = c("2","1", "0"))#
#
Interested = ggplot(tasks, aes(y= Task, fill= Interested))+ geom_bar() + xlab("Number of participants") +  ylab("Task") +  scale_fill_manual(name= "Interest", values =c("2" = "#144a86", "1" = "#347ac7", "0" = "#a2caf6"), labels =c("2" = "Strong", "1" = "Moderate", "0" = "None"))#
#
Interested#
pdf("Interested.pdf",  width=3.5, height=3.5)#
print(Interested)#
dev.off()#
table(tasks$Often, tasks$Interested)#
tasks$Method#
summary(tasks$Method)
library(plyr)#
library(ggplot2)#
#library(stringr)#
#
######################################################################################
tasks = read.table("study1.csv", sep=';', header=TRUE, fill=TRUE)#
head(tasks)#
summary(tasks)#
str(tasks)#
nrow(tasks)#
tasks$Often <- factor(tasks$Often, levels = c("4", "3", "2","1", "0"))#
tasks$Often#
Often = ggplot(tasks, aes(x= Task, fill= Often))+ geom_bar() + ylab("Number of participants") +  xlab("Task")  + scale_fill_manual(name= "Frequency", values =c("4" = "#147086", "3" = "#1a8699", "2" = "#6ab5ba", "1" = "#8ecbcc", "0" = "#a1d5d4"), labels =c("4" = "Very often", "3" = "Often", "2" = "Not so often", "1" = "Rarely", "0" = "Never"))#
Often#
pdf("Often.pdf",  width=3.5, height=3.5)#
print(Often)#
dev.off()#
#
tasks$Interested <- factor(tasks$Interested, levels = c("2","1", "0"))#
#
Interested = ggplot(tasks, aes(x= Task, fill= Interested))+ geom_bar() + ylab("Number of participants") +  xlab("Task") +  scale_fill_manual(name= "Interest", values =c("2" = "#144a86", "1" = "#347ac7", "0" = "#a2caf6"), labels =c("2" = "Strong", "1" = "Moderate", "0" = "None"))#
#
Interested#
pdf("Interested.pdf",  width=3.5, height=3.5)#
print(Interested)#
dev.off()#
table(tasks$Often, tasks$Interested)#
tasks$Method#
summary(tasks$Method)
