pid;Task;Often;Method;Why;Interested;Structure
dp7;T1;0;Sparql;E;1;Industry
dp7;T2;2;Sparql;B;2;0
dp7;T3;0;NA;F;1;0
dp7;T4;2;Sparql, Xslt;0;1;0
dp7;T5;0;NA;A ;0;0
dp7;T6;0;NA;A ;2;0
dp10;T1;0;Sparql;C, E;2;Industry
dp10;T2;0;NA;C;2;0
dp10;T3;2;Sparql;0;2;0
dp10;T4;2;Sparql;0;2;0
dp10;T5;2;Sparql;0;2;0
dp10;T6;1;Sparql;0;2;0
dp5;T1;3;SPARQL;E;2;Academia
dp5;T2;0;java;D;2;0
dp5;T3;1;Web browser;0;2;0
dp5;T4;0;front-end;D;2;0
dp5;T5;0;back-end;D;2;0
dp5;T6;1;sparql;0;2;0
dp8;T1;0;0;F, C;2;Academia
dp8;T2;2;SPARQL;0;2;0
dp8;T3;2;SPARQL;0;2;0
dp8;T4;2;0;F, C;2;0
dp8;T5;0;0;F, C;2;0
dp8;T6;0;0;A;2;0
dp11;T1;0;0;E;0;Industry
dp11;T2;0;0;A;0;0
dp11;T3;0;0;0;0;0
dp11;T4;2;SPARQL ;0;0;0
dp11;T5;0;0;0;0;0
dp11;T6;0;0;0;0;0
dp4;T1;0;0;A;0;Industry
dp4;T2;0;0;A;0;0
dp4;T3;0;0;A;0;0
dp4;T4;0;0;A;0;0
dp4;T5;0;0;A;0;0
dp4;T6;0;0;A;0;0
dp1;T1;3;sparql;0;2;Institution
dp1;T2;4;négotiation de contenu page à page;B;2;0
dp1;T3;0;0;0;2;0
dp1;T4;4;sparql;0;2;0
dp1;T5;2;recherche d’une propriété sur internet;0;2;0
dp1;T6;0;0;B;2;0
dp2;T1;0;0;B;2;Institution
dp2;T2;0;0;D;2;0
dp2;T3;0;0;B;2;0
dp2;T4;0;0;B;2;0
dp2;T5;0;0;B;2;0
dp2;T6;0;0;B;2;0
dp3;T1;0;0;B;2;Institution
dp3;T2;0;0;D;2;0
dp3;T3;0;0;B;2;0
dp3;T4;0;0;B;2;0
dp3;T5;0;0;B;2;0
dp3;T6;0;0;B;2;0
dp13;T1;4;0;0;2;Academia
dp13;T2;1;0;0;2;0
dp13;T3;1;SPARQL;C;2;0
dp13;T4;0;0;B, C;2;0
dp13;T5;0;0;A;1;0
dp13;T6;3;0;0;2;0
dp14;T1;0;0;F,C;2;Academia
dp14;T2;0;0;F,C;2;0
dp14;T3;0;0;F,C;2;0
dp14;T4;0;0;F,C;1;0
dp14;T5;0;0;F,C;1;0
dp14;T6;0;0;F,C;1;0